9
[(0,0)] '' 8
[(0,1),(1,1)] add 5
[(0,2),(0,3),(1,3)] mult 252
[(0,4),(1,4),(2,4),((2,3))] add 23
[(0,5),(0,6)] div 2
[(0,7),(0,8),(1,8)] add 11
[(1,0),(2,0)] sub 8
[(1,2),(2,2)] mult 48
[(1,5),(1,6)] sub 3
[(1,7),(2,7)] sub 1
[(2,1),(3,1)] sub 8
[(2,5),(2,6)] sub 3
[(2,8),(3,8)] sub 1
[(3,0),(4,0),(5,0)] mult 36
[(3,2),(3,3),(4,3)] add 17
[(3,4),(3,5)] add 8
[(3,6),(3,7)] sub 1
[(4,1),(4,2)] sub 5
[(4,4),(4,5)] sub 5
[(4,6),(4,7)] sub 5
[(4,8),(5,8)] sub 2
[(5,1),(6,1),(7,1),(6,0)] add 23
[(5,2),(5,3)] div 3
[(5,4),(6,3),(6,4)] add 23
[(5,5),(6,5)] sub 3
[(5,6),(6,6)] add 9
[(5,7),(6,7)] add 6
[(6,2),(7,2)] add 9
[(6,8),(7,8),(8,8)] mult 144
[(7,0),(8,0)] sub 2
[(7,3),(7,4),(7,5)] add 6
[(7,6),(7,7)] sub 1
[(8,1),(8,2)] mult 10
[(8,3),(8,4)] div 4
[(8,5),(8,6),(8,7)] mult 162
