5
[(0,0),(1,0),(2,0)] add 10
[(0,1),(0,2),(0,3)] mult 15
[(0,4),(1,4)] add 5
[(1,1),(2,1)] div 2
[(1,2),(2,2)] add 9
[(1,3),(2,3)] mult 6
[(2,4),(3,4)] sub 4
[(3,0),(3,1),(4,0),(4,1)] add 11
[(3,2),(3,3)] div 2
[(4,2),(4,3)] sub 2
[(4,4)] '' 4
